{
    "meta": {
        "limit": 20, 
        "next": "/api/v1/product/?limit=20&offset=20", 
        "offset": 0, 
        "previous": null, 
        "total_count": 4346
    }, 
    "objects": [
        {
            "age": "0.00", 
            "bottles_per_case": 12, 
            "code": "7758B", 
            "created_at": "2012-09-24T00:00:28.897406", 
            "description": "", 
            "id": "1927", 
            "modified_at": "2013-12-01T05:33:29.524070", 
            "on_sale": false, 
            "proof": "80.00", 
            "resource_uri": "/api/v1/product/1927/", 
            "size": "750 ML", 
            "slug": "7758b", 
            "status": "", 
            "title": "100 Anos Anejo"
        }, 
        {
            "age": "0.00", 
            "bottles_per_case": 6, 
            "code": "6233B", 
            "created_at": "2012-09-24T00:00:18.757075", 
            "description": "", 
            "id": "1446", 
            "modified_at": "2013-12-01T05:33:29.560689", 
            "on_sale": false, 
            "proof": "80.00", 
            "resource_uri": "/api/v1/product/1446/", 
            "size": "750 ML", 
            "slug": "6233b", 
            "status": "", 
            "title": "10 Cane Rum"
        }, 
        {
            "age": "0.00", 
            "bottles_per_case": 12, 
            "code": "6404B", 
            "created_at": "2012-09-24T00:02:52.412269", 
            "description": "", 
            "id": "2396", 
            "modified_at": "2013-12-01T05:33:29.580805", 
            "on_sale": false, 
            "proof": "90.00", 
            "resource_uri": "/api/v1/product/2396/", 
            "size": "750 ML", 
            "slug": "6404b", 
            "status": "", 
            "title": "12 Bridges Gin"
        }, 
        {
            "age": "8.00", 
            "bottles_per_case": 6, 
            "code": "6219B", 
            "created_at": "2012-09-24T00:00:18.594419", 
            "description": "", 
            "id": "1437", 
            "modified_at": "2013-12-01T05:33:29.596890", 
            "on_sale": false, 
            "proof": "93.70", 
            "resource_uri": "/api/v1/product/1437/", 
            "size": "750 ML", 
            "slug": "6219b", 
            "status": "", 
            "title": "1792 Ridgemont Reserve"
        }, 
        {
            "age": "0.00", 
            "bottles_per_case": 6, 
            "code": "0882B", 
            "created_at": "2012-09-24T00:00:02.590664", 
            "description": "", 
            "id": "715", 
            "modified_at": "2013-12-01T05:33:29.609140", 
            "on_sale": false, 
            "proof": "80.00", 
            "resource_uri": "/api/v1/product/715/", 
            "size": "750 ML", 
            "slug": "0882b", 
            "status": "", 
            "title": "1800 Anejo Tequila"
        }, 
        {
            "age": "0.00", 
            "bottles_per_case": 12, 
            "code": "1047E", 
            "created_at": "2013-07-13T05:01:39.624469", 
            "description": "", 
            "id": "4072", 
            "modified_at": "2013-12-01T05:33:29.647936", 
            "on_sale": false, 
            "proof": "0.00", 
            "resource_uri": "/api/v1/product/4072/", 
            "size": "375 ML", 
            "slug": "1047e", 
            "status": "", 
            "title": "1800 Coconut Tequila"
        }, 
        {
            "age": "0.00", 
            "bottles_per_case": 60, 
            "code": "1047F", 
            "created_at": "2012-09-24T00:00:06.430812", 
            "description": "", 
            "id": "888", 
            "modified_at": "2013-12-01T05:33:29.637160", 
            "on_sale": false, 
            "proof": "70.00", 
            "resource_uri": "/api/v1/product/888/", 
            "size": "50 ML", 
            "slug": "1047f", 
            "status": "@", 
            "title": "1800 Coconut Tequila"
        }, 
        {
            "age": "0.00", 
            "bottles_per_case": 12, 
            "code": "1047B", 
            "created_at": "2012-09-24T00:00:06.417515", 
            "description": "", 
            "id": "887", 
            "modified_at": "2013-12-01T05:33:29.622739", 
            "on_sale": false, 
            "proof": "70.00", 
            "resource_uri": "/api/v1/product/887/", 
            "size": "750 ML", 
            "slug": "1047b", 
            "status": "", 
            "title": "1800 Coconut Tequila"
        }, 
        {
            "age": "0.00", 
            "bottles_per_case": 12, 
            "code": "0924B", 
            "created_at": "2012-09-24T00:00:03.864990", 
            "description": "", 
            "id": "779", 
            "modified_at": "2013-12-01T05:33:29.682654", 
            "on_sale": false, 
            "proof": "80.00", 
            "resource_uri": "/api/v1/product/779/", 
            "size": "750 ML", 
            "slug": "0924b", 
            "status": "", 
            "title": "1800 Reposado Tequila"
        }, 
        {
            "age": "0.00", 
            "bottles_per_case": 6, 
            "code": "0924H", 
            "created_at": "2012-09-24T00:00:03.892582", 
            "description": "", 
            "id": "781", 
            "modified_at": "2013-12-01T05:33:29.670974", 
            "on_sale": false, 
            "proof": "80.00", 
            "resource_uri": "/api/v1/product/781/", 
            "size": "1.75 L", 
            "slug": "0924h", 
            "status": "", 
            "title": "1800 Reposado Tequila"
        }, 
        {
            "age": "0.00", 
            "bottles_per_case": 12, 
            "code": "0924E", 
            "created_at": "2012-09-24T00:00:03.879069", 
            "description": "", 
            "id": "780", 
            "modified_at": "2013-12-01T05:33:29.660680", 
            "on_sale": false, 
            "proof": "80.00", 
            "resource_uri": "/api/v1/product/780/", 
            "size": "375 ML", 
            "slug": "0924e", 
            "status": "", 
            "title": "1800 Reposado Tequila"
        }, 
        {
            "age": "0.00", 
            "bottles_per_case": 6, 
            "code": "1139B", 
            "created_at": "2012-09-24T00:00:07.500482", 
            "description": "", 
            "id": "957", 
            "modified_at": "2013-12-01T05:33:29.692209", 
            "on_sale": false, 
            "proof": "80.00", 
            "resource_uri": "/api/v1/product/957/", 
            "size": "750 ML", 
            "slug": "1139b", 
            "status": "@", 
            "title": "1800 Reposado W/pomegr Mix"
        }, 
        {
            "age": "0.00", 
            "bottles_per_case": 12, 
            "code": "6413E", 
            "created_at": "2012-09-24T00:07:47.728992", 
            "description": "", 
            "id": "2519", 
            "modified_at": "2013-12-01T05:33:29.722723", 
            "on_sale": false, 
            "proof": "100.00", 
            "resource_uri": "/api/v1/product/2519/", 
            "size": "375 ML", 
            "slug": "6413e", 
            "status": "", 
            "title": "1800 Select Silver"
        }, 
        {
            "age": "0.00", 
            "bottles_per_case": 12, 
            "code": "6413B", 
            "created_at": "2012-09-24T00:00:21.203219", 
            "description": "", 
            "id": "1557", 
            "modified_at": "2013-12-01T05:33:29.705054", 
            "on_sale": false, 
            "proof": "100.00", 
            "resource_uri": "/api/v1/product/1557/", 
            "size": "750 ML", 
            "slug": "6413b", 
            "status": "", 
            "title": "1800 Select Silver"
        }, 
        {
            "age": "0.00", 
            "bottles_per_case": 6, 
            "code": "6194H", 
            "created_at": "2012-09-24T00:00:18.320703", 
            "description": "", 
            "id": "1419", 
            "modified_at": "2013-12-01T05:33:29.760524", 
            "on_sale": false, 
            "proof": "80.00", 
            "resource_uri": "/api/v1/product/1419/", 
            "size": "1.75 L", 
            "slug": "6194h", 
            "status": "", 
            "title": "1800 Silver Tequila"
        }, 
        {
            "age": "0.00", 
            "bottles_per_case": 12, 
            "code": "6194B", 
            "created_at": "2012-09-24T00:00:18.306155", 
            "description": "", 
            "id": "1418", 
            "modified_at": "2013-12-01T05:33:29.743263", 
            "on_sale": false, 
            "proof": "80.00", 
            "resource_uri": "/api/v1/product/1418/", 
            "size": "750 ML", 
            "slug": "6194b", 
            "status": "", 
            "title": "1800 Silver Tequila"
        }, 
        {
            "age": "0.00", 
            "bottles_per_case": 6, 
            "code": "1474B", 
            "created_at": "2012-10-20T05:01:28.424405", 
            "description": "", 
            "id": "3661", 
            "modified_at": "2013-12-01T05:33:29.770987", 
            "on_sale": false, 
            "proof": "0.00", 
            "resource_uri": "/api/v1/product/3661/", 
            "size": "750 ML", 
            "slug": "1474b", 
            "status": "@", 
            "title": "1800 Silver W/1800 Coconut"
        }, 
        {
            "age": "0.00", 
            "bottles_per_case": 6, 
            "code": "1710B", 
            "created_at": "2013-03-16T05:00:42.696386", 
            "description": "", 
            "id": "3835", 
            "modified_at": "2013-12-01T05:33:29.783501", 
            "on_sale": false, 
            "proof": "0.00", 
            "resource_uri": "/api/v1/product/3835/", 
            "size": "750 ML", 
            "slug": "1710b", 
            "status": "@", 
            "title": "1800 Silver W/agavero Oran"
        }, 
        {
            "age": "0.00", 
            "bottles_per_case": 6, 
            "code": "1140B", 
            "created_at": "2012-09-24T00:00:07.514677", 
            "description": "", 
            "id": "958", 
            "modified_at": "2013-12-01T05:33:29.794361", 
            "on_sale": false, 
            "proof": "80.00", 
            "resource_uri": "/api/v1/product/958/", 
            "size": "750 ML", 
            "slug": "1140b", 
            "status": "@", 
            "title": "1800 Silver W/pomegr Mix"
        }, 
        {
            "age": "0.00", 
            "bottles_per_case": 6, 
            "code": "1707H", 
            "created_at": "2013-03-16T05:00:42.671809", 
            "description": "", 
            "id": "3833", 
            "modified_at": "2013-12-01T05:33:29.804012", 
            "on_sale": false, 
            "proof": "0.00", 
            "resource_uri": "/api/v1/product/3833/", 
            "size": "1.75 L", 
            "slug": "1707h", 
            "status": "@", 
            "title": "1800 Ult. Blueberry Rtd"
        }
    ]
}
