{
    "meta": {
        "limit": 20, 
        "next": "/api/v1/store/?limit=20&offset=20", 
        "offset": 0, 
        "previous": null, 
        "total_count": 246
    }, 
    "objects": [
        {
            "address": "1250 Campbell St, Baker City, OR 97814, USA", 
            "address_raw": "1250 Campbell St 97814", 
            "county": "Baker", 
            "hours_raw": "10-7 M-Th; 10-8 F; 10-7 S; Closed Sunday", 
            "id": "11", 
            "key": 1092, 
            "latitude": "44.781885", 
            "longitude": "-117.819705", 
            "name": "Baker City Liquor", 
            "phone": "(541) 523-5022", 
            "resource_uri": "/api/v1/store/11/"
        }, 
        {
            "address": "143 N Main St, Halfway, OR 97834, USA", 
            "address_raw": "143 N Main St 97834", 
            "county": "Baker", 
            "hours_raw": "10-6 M-S; Closed Sunday", 
            "id": "85", 
            "key": 1071, 
            "latitude": "44.877867", 
            "longitude": "-117.109800", 
            "name": "Halfway Liquor", 
            "phone": "(541) 742-2726", 
            "resource_uri": "/api/v1/store/85/"
        }, 
        {
            "address": "165 1st St E, Huntington, OR 97907, USA", 
            "address_raw": "165 1st Street E 97907", 
            "county": "Baker", 
            "hours_raw": "10-6 M-S; Closed Sunday", 
            "id": "93", 
            "key": 1204, 
            "latitude": "44.350631", 
            "longitude": "-117.266479", 
            "name": "Huntington Liquor", 
            "phone": "(541) 869-2855", 
            "resource_uri": "/api/v1/store/93/"
        }, 
        {
            "address": "209 Main St, Richland, OR 97870, USA", 
            "address_raw": "209 Main Street 97870", 
            "county": "Baker", 
            "hours_raw": "9-6 M-S; Closed Sunday", 
            "id": "191", 
            "key": 1078, 
            "latitude": "44.769401", 
            "longitude": "-117.170340", 
            "name": "Richland Liquor", 
            "phone": "(541) 893-6167", 
            "resource_uri": "/api/v1/store/191/"
        }, 
        {
            "address": "150 Mill St, Sumpter, OR 97877, USA", 
            "address_raw": "150 N Mill St 97877", 
            "county": "Baker", 
            "hours_raw": "8-6 M-S; Closed Sunday", 
            "id": "218", 
            "key": 1099, 
            "latitude": "44.744912", 
            "longitude": "-118.201720", 
            "name": "Sumpter Liquor", 
            "phone": "(541) 894-2362", 
            "resource_uri": "/api/v1/store/218/"
        }, 
        {
            "address": "575 SW Washington Ave, Corvallis, OR 97333, USA", 
            "address_raw": "575 SW Washington Avenue 97333", 
            "county": "Benton", 
            "hours_raw": "10-7:30 M-Th; 10-8 FS; Closed Sunday", 
            "id": "49", 
            "key": 1228, 
            "latitude": "44.561379", 
            "longitude": "-123.265622", 
            "name": "Corvallis Downtown Liquor", 
            "phone": "(541) 753-7998", 
            "resource_uri": "/api/v1/store/49/"
        }, 
        {
            "address": "935 NW Circle Blvd, Corvallis, OR 97330, USA", 
            "address_raw": "935 NW Circle Blvd. 97330", 
            "county": "Benton", 
            "hours_raw": "11-8 M-S; 12-5 Sun", 
            "id": "50", 
            "key": 1194, 
            "latitude": "44.588763", 
            "longitude": "-123.257204", 
            "name": "Corvallis North Liquor", 
            "phone": "(541) 754-0769", 
            "resource_uri": "/api/v1/store/50/"
        }, 
        {
            "address": "1805 Main St, Philomath, OR 97370, USA", 
            "address_raw": "1805 Main Street 97370", 
            "county": "Benton", 
            "hours_raw": "11-7 M-S; Closed Sunday", 
            "id": "146", 
            "key": 1062, 
            "latitude": "44.540188", 
            "longitude": "-123.359943", 
            "name": "Philomath Liquor", 
            "phone": "(541) 929-3313", 
            "resource_uri": "/api/v1/store/146/"
        }, 
        {
            "address": "426 NW 1st Ave, Canby, OR 97013, USA", 
            "address_raw": "426 NW 1st Avenue 97013", 
            "county": "Clackamas", 
            "hours_raw": "11-7 M-S; 12-4 Sun", 
            "id": "31", 
            "key": 1122, 
            "latitude": "45.261396", 
            "longitude": "-122.697053", 
            "name": "Canby Liquor", 
            "phone": "(503) 266-3562", 
            "resource_uri": "/api/v1/store/31/"
        }, 
        {
            "address": "16142 SE 82nd Dr, Clackamas, OR 97015, USA", 
            "address_raw": "16142 SE 82nd Dr 97015", 
            "county": "Clackamas", 
            "hours_raw": "10:30-7:30 M-Th,10:30-8 FS; 11-4 Sun", 
            "id": "42", 
            "key": 1101, 
            "latitude": "45.405764", 
            "longitude": "-122.568430", 
            "name": "Clackamas Liquor", 
            "phone": "(503) 656-5186", 
            "resource_uri": "/api/v1/store/42/"
        }, 
        {
            "address": "12046 SE Sunnyside Rd, Clackamas, OR 97015, USA", 
            "address_raw": "12046 SE Sunnyside Rd 97015", 
            "county": "Clackamas", 
            "hours_raw": "11-8 M-Th; 10-8 FS; 12-5 Sun", 
            "id": "43", 
            "key": 1238, 
            "latitude": "45.429450", 
            "longitude": "-122.539386", 
            "name": "Clackamas Sunnyside Liquor", 
            "phone": "(503) 698-5829", 
            "resource_uri": "/api/v1/store/43/"
        }, 
        {
            "address": "305 NW Wade St, Estacada, OR 97023, USA", 
            "address_raw": "305 SW Wade St. 97023", 
            "county": "Clackamas", 
            "hours_raw": "10-7 M-S; Closed Sunday", 
            "id": "63", 
            "key": 1046, 
            "latitude": "45.287726", 
            "longitude": "-122.337507", 
            "name": "Estacada Liquor", 
            "phone": "(503) 630-6886", 
            "resource_uri": "/api/v1/store/63/"
        }, 
        {
            "address": "30521 E Meldrum St, Mt. Hood National Forest, Government Camp, OR 97028, USA", 
            "address_raw": "30521 E Meldrum St 97028", 
            "county": "Clackamas", 
            "hours_raw": "10-8 M-Sun", 
            "id": "78", 
            "key": 1244, 
            "latitude": "45.304540", 
            "longitude": "-121.754985", 
            "name": "Government Camp Liquor", 
            "phone": "(503) 272-3107", 
            "resource_uri": "/api/v1/store/78/"
        }, 
        {
            "address": "10415 SE 82nd Ave 97086", 
            "address_raw": "10415 SE 82nd Ave 97086", 
            "county": "Clackamas", 
            "hours_raw": "10-8 M-S; 11-6 Sun", 
            "id": "86", 
            "key": 1098, 
            "latitude": "0.000000", 
            "longitude": "0.000000", 
            "name": "Happy Valley Southgate Liquor", 
            "phone": "(503) 774-4201", 
            "resource_uri": "/api/v1/store/86/"
        }, 
        {
            "address": "644 N State St, Lake Oswego, OR 97034, USA", 
            "address_raw": "644 N State Street 97034", 
            "county": "Clackamas", 
            "hours_raw": "11-7 M-S; 12-5 Sun", 
            "id": "110", 
            "key": 1178, 
            "latitude": "45.422315", 
            "longitude": "-122.662289", 
            "name": "Lake Oswego Downtown Liquor", 
            "phone": "(503) 636-1112", 
            "resource_uri": "/api/v1/store/110/"
        }, 
        {
            "address": "4 Monroe Pkwy, Lake Oswego, OR 97035, USA", 
            "address_raw": "4D Monroe Parkway 97035", 
            "county": "Clackamas", 
            "hours_raw": "10-7 M-W; 10-8 Th-S; Closed Sunday", 
            "id": "111", 
            "key": 1158, 
            "latitude": "45.432116", 
            "longitude": "-122.703395", 
            "name": "Lake Oswego Mt Park Liquor", 
            "phone": "(503) 636-0310", 
            "resource_uri": "/api/v1/store/111/"
        }, 
        {
            "address": "10804 SE Oak St, Portland, OR 97216, USA", 
            "address_raw": "10804 SE Oak St 97222", 
            "county": "Clackamas", 
            "hours_raw": "10-8 M-S; 11-6 Sun", 
            "id": "129", 
            "key": 1094, 
            "latitude": "45.519587", 
            "longitude": "-122.555606", 
            "name": "Milwaukie Liquor", 
            "phone": "(503) 654-9020", 
            "resource_uri": "/api/v1/store/129/"
        }, 
        {
            "address": "14632 SE McLoughlin Blvd, Portland, OR 97267, USA", 
            "address_raw": "14632 SE McLoughlin Blvd. 97267", 
            "county": "Clackamas", 
            "hours_raw": "11-7:30 M-Th; 11-8:30 FS; 11-5 Sun", 
            "id": "130", 
            "key": 1105, 
            "latitude": "45.417023", 
            "longitude": "-122.632563", 
            "name": "Milwaukie-Oak Grove Liquor", 
            "phone": "(503) 653-7375", 
            "resource_uri": "/api/v1/store/130/"
        }, 
        {
            "address": "1585 W Main Street, Ste G 97038", 
            "address_raw": "1585 W Main Street, Ste G 97038", 
            "county": "Clackamas", 
            "hours_raw": "11-7 M-Sun", 
            "id": "131", 
            "key": 1117, 
            "latitude": "0.000000", 
            "longitude": "0.000000", 
            "name": "Molalla Liquor", 
            "phone": "(503) 829-2384", 
            "resource_uri": "/api/v1/store/131/"
        }, 
        {
            "address": "1678 Beavercreek Rd, Oregon City, OR 97045, USA", 
            "address_raw": "1678 Beavercreek Rd, Suite Q 97045", 
            "county": "Clackamas", 
            "hours_raw": "11-7 M-S; Closed Sunday", 
            "id": "143", 
            "key": 1172, 
            "latitude": "45.332554", 
            "longitude": "-122.584741", 
            "name": "Oregon City Liquor", 
            "phone": "(503) 655-9334", 
            "resource_uri": "/api/v1/store/143/"
        }
    ]
}
